{
  "fetched_at": "2026-02-07T04:24:26.551923",
  "source": "Congress.gov",
  "data": {
    "bills": [
      {
        "congress": 110,
        "latestAction": {
          "actionDate": "2007-04-26",
          "text": "Sponsor introductory remarks on measure. (CR H4200)"
        },
        "number": "10",
        "originChamber": "House",
        "originChamberCode": "H",
        "title": "Expressing the sense of the Congress that the tax give away since 2001 to the wealthiest 5 percent of Americans should be repealed and those monies instead invested in vital programs to relieve the growing burden on the working poor and to alleviate poverty in America.",
        "type": "HCONRES",
        "updateDate": "2024-02-07",
        "updateDateIncludingText": "2024-02-07",
        "url": "https://api.congress.gov/v3/bill/110/hconres/10?format=json"
      },
      {
        "congress": 110,
        "latestAction": {
          "actionDate": "2008-06-24",
          "text": "Received in the Senate and referred to the Committee on Energy and Natural Resources."
        },
        "number": "2",
        "originChamber": "House",
        "originChamberCode": "H",
        "title": "Expressing the sense of the Congress that children in the United States should understand and appreciate the contributions of individuals from the territories of the United States and the contributions of such individuals in United States history.",
        "type": "HCONRES",
        "updateDate": "2025-07-21",
        "updateDateIncludingText": "2025-07-21",
        "url": "https://api.congress.gov/v3/bill/110/hconres/2?format=json"
      },
      {
        "congress": 110,
        "latestAction": {
          "actionDate": "2007-03-19",
          "text": "Message on Senate action sent to the House."
        },
        "number": "20",
        "originChamber": "House",
        "originChamberCode": "H",
        "title": "Calling on the Government of the United Kingdom to immediately establish a full, independent, and public judicial inquiry into the murder of Northern Ireland defense attorney Patrick Finucane, as recommended by Judge Peter Cory as part of the Weston Park Agreement, in order to move forward on the Northern Ireland peace process.",
        "type": "HCONRES",
        "updateDate": "2025-04-07",
        "updateDateIncludingText": "2025-04-07",
        "url": "https://api.congress.gov/v3/bill/110/hconres/20?format=json"
      },
      {
        "congress": 110,
        "latestAction": {
          "actionDate": "2007-01-05",
          "text": "Sponsor introductory remarks on measure. (CR E22-23)"
        },
        "number": "12",
        "originChamber": "House",
        "originChamberCode": "H",
        "title": "Requiring the display of the Ten Commandments in the United States Capitol.",
        "type": "HCONRES",
        "updateDate": "2024-02-07",
        "updateDateIncludingText": "2024-02-07",
        "url": "https://api.congress.gov/v3/bill/110/hconres/12?format=json"
      },
      {
        "congress": 110,
        "latestAction": {
          "actionDate": "2007-01-11",
          "text": "Referred to the Subcommittee on Trade."
        },
        "number": "22",
        "originChamber": "House",
        "originChamberCode": "H",
        "title": "Expressing the sense of Congress that the President should provide notice of withdrawal of the United States from the North American Free Trade Agreement (NAFTA).",
        "type": "HCONRES",
        "updateDate": "2024-02-07",
        "updateDateIncludingText": "2024-02-07",
        "url": "https://api.congress.gov/v3/bill/110/hconres/22?format=json"
      }
    ],
    "pagination": {
      "count": 424322,
      "next": "https://api.congress.gov/v3/bill?chamber=house&offset=5&limit=5&format=json"
    },
    "request": {
      "contentType": "application/json",
      "format": "json"
    }
  }
}